
{
	"db_name":"RW",
	"sensors":[
	   {
		  "name":"accelerometer",
		  "uom":"m/s^2",
		  "frequency":50
		},
		{
		 "name":"gyroscope",
		 "uom":"degree/s",
		 "frequency":50
	 },
	 {
		"name":"magnetometer",
		"uom":"n.s",
		"frequency":50
	 }
	],
	"activities":[
		"Climbing down",
    "Climbing up",
    "Jumping",
    "Lying",
		"Running",
		"Sitting",
    "Standing",
    "Walking"
	]
 }
